Snow Data Assignment: Web Scraping, Functions, and Iteration
…
## Warning: 69168 parsing failures.
## row col   expected     actual                             file
##   1  -- 26 columns 20 columns 'data/SBB_SBSP_Forcing_Data.txt'
##   2  -- 26 columns 20 columns 'data/SBB_SBSP_Forcing_Data.txt'
##   3  -- 26 columns 20 columns 'data/SBB_SBSP_Forcing_Data.txt'
##   4  -- 26 columns 20 columns 'data/SBB_SBSP_Forcing_Data.txt'
##   5  -- 26 columns 20 columns 'data/SBB_SBSP_Forcing_Data.txt'
## ... ... .......... .......... ................................
## See problems(...) for more details.

meteor_data_full

## # A tibble: 138,336 x 27
##     year month   day  hour minute second `precip [kg m-2 s-1]` `sw down [W m-2]`
##    <dbl> <dbl> <dbl> <dbl>  <dbl>  <dbl>                 <dbl>             <dbl>
##  1  2003    11    10     1      0      0              0                    -9999
##  2  2003    11    10     2      0      0              0.000278             -9999
##  3  2003    11    10     3      0      0              0.000278             -9999
##  4  2003    11    10     4      0      0              0.000278             -9999
##  5  2003    11    10     5      0      0              0.000833             -9999
##  6  2003    11    10     6      0      0              0.000278             -9999
##  7  2003    11    10     7      0      0              0                    -9999
##  8  2003    11    10     8      0      0              0.000278             -9999
##  9  2003    11    10     9      0      0              0.000278             -9999
## 10  2003    11    10    10      0      0              0.000278             -9999
## # ... with 138,326 more rows, and 19 more variables: lw down [W m-2] <dbl>,
## #   air temp [K] <dbl>, windspeed [m s-1] <dbl>, relative humidity [%] <dbl>,
## #   pressure [Pa] <dbl>, specific humidity [g g-1] <dbl>,
## #   calculated dewpoint temperature [K] <dbl>,
## #   precip, WMO-corrected [kg m-2 s-1] <dbl>,
## #   air temp, corrected with Kent et al. (1993) [K] <dbl>,
## #   air temp, corrected with Anderson and Baumgartner (1998)[K] <dbl>, ...
…
